[
  {
    "city": "Düsseldorf",
    "id": 15475,
    "hotels": {
      "1": {
        "name": "Hilton Düsseldorf",
        "address": "Georg-Glock-Straße 20, 40474 Düsseldorf",
        "partners":{
          "101":{
            "name":"Hotels.com",
            "url":"http://www.hotels.com",
            "prices":{
              "1001":{
                "description":"Single Room",
                "amount":300,
                "from":"2012-10-12",
                "to":"2012-10-13"
              },
              "1002":{
                "description":"Double Room",
                "amount":125,
                "from":"2012-10-12",
                "to":"2012-10-13"
              }
            }
          },
          "102":{
            "name":"Booking.com",
            "url":"http://www.booking.com",
            "prices":{
              "1001":{
                "description":"Single Room",
                "amount":125,
                "from":"2012-10-12",
                "to":"2012-10-13"
              },
              "1002":{
                "description":"Double Room",
                "amount":139,
                "from":"2012-10-12",
                "to":"2012-10-13"
              }
            }
          }
        }
      },
      "2": {
        "name": "Mercure DüsseldorfCity Nord",
        "address": "Nördlicher Zubringer 7, 40470 Düsseldorf",
        "partners":{
          "101":{
            "name":"Hotels.com",
            "url":"http://www.hotels.com",
            "prices":{
              "1001":{
                "description":"Single Room",
                "amount":125,
                "from":"2012-10-12",
                "to":"2012-10-13"
              },
              "1002":{
                "description":"Double Room",
                "amount":15,
                "from":"2012-10-12",
                "to":"2012-10-13"
              }
            }
          },
          "102":{
            "name":"Booking.com",
            "url":"http://www.booking.com",
            "prices":{
              "1001":{
                "description":"Single Room",
                "amount":125,
                "from":"2012-10-12",
                "to":"2012-10-13"
              },
              "1002":{
                "description":"Double Room",
                "amount":45,
                "from":"2012-10-12",
                "to":"2012-10-13"
              }
            }
          }
        }
      }
    }
  },
  {
    "city": "Berlin",
    "id": 15476,
    "hotels": {
      "1": {
        "name": "Hilton Berlin",
        "address": "Ceorg-Glock-Straße 20, 40474 Berlin",
        "partners":{
          "101":{
            "name":"Hotels.com",
            "url":"http://www.hotels.com",
            "prices":{
              "1001":{
                "description":"Single Room",
                "amount":300,
                "from":"2012-10-12",
                "to":"2012-10-13"
              },
              "1002":{
                "description":"Double Room",
                "amount":45,
                "from":"2012-10-12",
                "to":"2012-10-13"
              }
            }
          },
          "102":{
            "name":"Booking.com",
            "url":"http://www.booking.com",
            "prices":{
              "1001":{
                "description":"Single Room",
                "amount":10,
                "from":"2012-10-12",
                "to":"2012-10-13"
              },
              "1002":{
                "description":"Double Room",
                "amount":139,
                "from":"2012-10-12",
                "to":"2012-10-13"
              }
            }
          }
        }
      },
      "2": {
        "name": "Berlin Mercure",
        "address": "Aeorg-Glock-Straße 19, 40475 Berlin",
        "partners":{
          "101":{
            "name":"Hotels.com",
            "url":"http://www.hotels.com",
            "prices":{
              "1001":{
                "description":"Single Room",
                "amount":324,
                "from":"2012-10-12",
                "to":"2012-10-13"
              },
              "1002":{
                "description":"Double Room",
                "amount":45,
                "from":"2012-10-12",
                "to":"2012-10-13"
              }
            }
          },
          "102":{
            "name":"Booking.com",
            "url":"http://www.booking.com",
            "prices":{
              "1001":{
                "description":"Single Room",
                "amount":125,
                "from":"2012-10-12",
                "to":"2012-10-13"
              },
              "1002":{
                "description":"Double Room",
                "amount":139,
                "from":"2012-10-12",
                "to":"2012-10-13"
              }
            }
          }
        }
      },
      "3": {
        "name": "Avila Berlin",
        "address": "Deorg-Glock-Straße 32, 40474 Berlin",
        "partners":{
          "101":{
            "name":"Hotels.com",
            "url":"http://www.hotels.com",
            "prices":{
              "1001":{
                "description":"Single Room",
                "amount":300,
                "from":"2012-10-12",
                "to":"2012-10-13"
              },
              "1002":{
                "description":"Double Room",
                "amount":110,
                "from":"2012-10-12",
                "to":"2012-10-13"
              }
            }
          },
          "102":{
            "name":"Booking.com",
            "url":"http://www.booking.com",
            "prices":{
              "1001":{
                "description":"Single Room",
                "amount":125,
                "from":"2012-10-12",
                "to":"2012-10-13"
              },
              "1002":{
                "description":"Double Room",
                "amount":5,
                "from":"2012-10-12",
                "to":"2012-10-13"
              }
            }
          }
        }
      }
    }
  }
]
